<?xml version="1.0" encoding="utf-8"?>
<!-- Generator: Adobe Illustrator 23.0.5, SVG Export Plug-In . SVG Version: 6.00 Build 0)  -->
<svg version="1.1" id="Capa_1" xmlns="http://www.w3.org/2000/svg" xmlns:xlink="http://www.w3.org/1999/xlink" x="0px" y="0px"
	 viewBox="0 0 385 385" style="enable-background:new 0 0 385 385;" xml:space="preserve">
<style type="text/css">
	.st0{fill:#0C63E4;}
</style>
<path class="st0" d="M201.1,255.3L309.3,147c4.7-4.8,4.7-12.5,0-17.2c-4.7-4.8-12.4-4.8-17.2,0l-99.7,99.7l-99.7-99.7
	c-4.7-4.8-12.4-4.8-17.2,0c-4.7,4.8-4.7,12.5,0,17.2l108.3,108.3C188.6,259.9,196.4,259.9,201.1,255.3z"/>
</svg>
