<?xml version="1.0" encoding="utf-8"?>
<!-- Generator: Adobe Illustrator 23.0.5, SVG Export Plug-In . SVG Version: 6.00 Build 0)  -->
<svg version="1.1" id="Capa_1" xmlns="http://www.w3.org/2000/svg" xmlns:xlink="http://www.w3.org/1999/xlink" x="0px" y="0px"
	 viewBox="0 0 512 512" style="enable-background:new 0 0 512 512;" xml:space="preserve">
<path d="M334.8,118.8c-82.3,0-152.7,70.3-152.7,152.7c0,82.3,70.3,152.7,152.7,152.7c82.3,0,152.7-70.3,152.7-152.7
	C487.5,189.2,417.2,118.8,334.8,118.8z M334.8,412.2c-76.3,0-140.7-64.4-140.7-140.7s64.4-140.7,140.7-140.7s140.7,64.4,140.7,140.7
	S411.1,412.2,334.8,412.2z"/>
<path d="M334.8,152.2c-65.6,0-119.3,53.3-119.3,119.3c0,65.6,53.2,119.3,119.3,119.3c65.6,0,119.3-53.2,119.3-119.3
	C454.1,205.9,400.9,152.2,334.8,152.2z M430.2,277.4H442c-1.3,24.4-10.8,47.3-27.2,65.6l-8.3-8.3c-2.3-2.3-6.1-2.3-8.4,0
	c-2.3,2.3-2.3,6.1,0,8.4l8.3,8.3c-18.2,16.4-41.2,25.9-65.6,27.2v-11.8c0-3.3-2.7-6-6-6s-6,2.7-6,6v11.8
	c-24.4-1.3-47.3-10.8-65.6-27.2l8.3-8.3c2.3-2.3,2.3-6.1,0-8.4c-2.3-2.3-6.1-2.3-8.4,0l-8.3,8.3c-16.4-18.2-25.9-41.2-27.2-65.6
	h11.8c3.3,0,6-2.7,6-6c0-3.3-2.7-6-6-6h-11.8c1.3-24.4,10.8-47.3,27.2-65.6l8.3,8.3c2.3,2.3,6.1,2.3,8.4,0c2.3-2.3,2.3-6.1,0-8.4
	l-8.3-8.3c18.2-16.4,41.2-25.9,65.6-27.2v11.8c0,3.3,2.7,6,6,6s6-2.7,6-6v-11.8c24.4,1.3,47.3,10.8,65.6,27.2l-8.3,8.3
	c-2.3,2.3-2.3,6.1,0,8.4c2.3,2.3,6.1,2.3,8.4,0l8.3-8.3c16.4,18.2,25.9,41.2,27.2,65.6h-11.8c-3.3,0-6,2.7-6,6
	C424.3,274.8,426.9,277.4,430.2,277.4z"/>
<path d="M388,239.8l-41.8,25.1c-1.6-1.3-3.4-2.4-5.4-3.1V231c0-3.3-2.7-6-6-6s-6,2.7-6,6v30.8c-6.9,2.5-11.9,9.1-11.9,16.9
	c0,9.9,8,17.9,17.9,17.9s17.9-8,17.9-17.9c0-1.2-0.1-2.4-0.4-3.6l41.8-25.1c2.8-1.7,3.7-5.4,2-8.2C394.5,239,390.9,238.1,388,239.8z
	 M334.8,284.7c-3.3,0-6-2.7-6-6c0-3.3,2.7-6,6-6c3.4,0,6,2.8,6,6C340.8,282,338.1,284.7,334.8,284.7z"/>
<path d="M193.5,307.5c-0.3-2.7-0.2-6.3,0.6-9.6c-16.4,11.6-36.4,18.3-58,18.3c-55.6,0-100.7-45.1-100.7-100.7
	c0-55.6,45.1-100.7,100.7-100.7c38.7,0,72.4,21.9,89.2,54c1.8-2.4,4.3-4.6,6-7c0.5-0.7,1.1-1.2,1.8-1.6
	c-19.2-33.6-55.5-56.3-97-56.3c-61.7,0-111.6,50-111.6,111.6s50,111.6,111.6,111.6c21.5,0,41.5-6.1,58.5-16.6
	C194.1,309.8,193.7,308.8,193.5,307.5z"/>
<path d="M136.2,221c-17.7,0-32-14.3-32-32s14.3-32,32-32s32,14.3,32,32c0,0,0,0,0,0c0,3-2.4,5.4-5.4,5.4c-3,0-5.4-2.4-5.4-5.4
	c0-11.7-9.4-21.1-21.1-21.1s-21.1,9.4-21.1,21.1s9.4,21.1,21.1,21.1c0,0,0,0,0,0c3,0,5.4,2.4,5.4,5.4S139.2,221,136.2,221z"/>
<path d="M136.2,274.1c-17.7,0-32-14.3-32-32c0-3,2.4-5.4,5.4-5.4c3,0,5.4,2.4,5.4,5.4c0,11.7,9.4,21.1,21.1,21.1
	c11.7,0,21.1-9.4,21.1-21.1c0-11.7-9.4-21.1-21.1-21.1c0,0,0,0,0,0c-3,0-5.4-2.4-5.4-5.4s2.4-5.4,5.4-5.4
	c17.7,0.2,31.8,14.7,31.6,32.4C167.5,259.9,153.5,273.9,136.2,274.1z"/>
<path d="M136.2,285c-3,0-5.4-2.4-5.4-5.4v-128c0-3,2.4-5.4,5.4-5.4s5.4,2.4,5.4,5.4v128C141.6,282.5,139.2,285,136.2,285z"/>
</svg>
