<?xml version="1.0" encoding="utf-8"?>
<!-- Generator: Adobe Illustrator 23.0.5, SVG Export Plug-In . SVG Version: 6.00 Build 0)  -->
<svg version="1.1" id="Capa_1" xmlns="http://www.w3.org/2000/svg" xmlns:xlink="http://www.w3.org/1999/xlink" x="0px" y="0px"
	 viewBox="0 0 682 682" style="enable-background:new 0 0 682 682;" xml:space="preserve">
<style type="text/css">
	.st0{fill:#30BF39;}
	.st1{fill-rule:evenodd;clip-rule:evenodd;fill:#FFFFFF;}
</style>
<circle class="st0" cx="343" cy="341" r="341"/>
<path class="st1" d="M506.5,162.1c-42.9-42.9-99.9-66.6-160.6-66.6c-125.1,0-227,101.8-227,227c0,40,10.4,79.1,30.3,113.5L117,553.6
	l120.3-31.6c33.2,18.1,70.5,27.6,108.5,27.6h0.1c125.1,0,227-101.8,227-227C572.9,262,549.4,205,506.5,162.1z M345.9,511.4
	L345.9,511.4c-33.9,0-67.1-9.1-96.1-26.3l-6.9-4.1l-71.4,18.7l19.1-69.6l-4.5-7.1c-18.9-30-28.9-64.8-28.8-100.4
	c0-104,84.7-188.7,188.8-188.7c50.4,0,97.8,19.7,133.4,55.3s55.2,83.1,55.2,133.5C534.5,426.7,449.9,511.4,345.9,511.4z M449.4,370
	c-5.7-2.8-33.6-16.6-38.8-18.5c-5.2-1.9-9-2.8-12.8,2.8c-3.8,5.7-14.7,18.5-18,22.2c-3.3,3.8-6.6,4.3-12.3,1.4
	c-5.7-2.8-23.9-8.8-45.6-28.2c-16.9-15-28.2-33.6-31.6-39.3c-3.3-5.7,0-8.5,2.5-11.6c6.1-7.6,12.3-15.6,14.2-19.4
	c1.9-3.8,0.9-7.1-0.5-9.9c-1.4-2.8-12.8-30.8-17.5-42.1c-4.6-11.1-9.3-9.6-12.8-9.7c-3.3-0.2-7.1-0.2-10.9-0.2
	c-3.8,0-9.9,1.4-15.1,7.1c-5.2,5.7-19.8,19.4-19.8,47.3s20.3,54.9,23.2,58.7s40,61.1,96.9,85.6c13.5,5.8,24.1,9.3,32.3,12
	c13.6,4.3,26,3.7,35.7,2.2c10.9-1.6,33.6-13.7,38.3-27c4.7-13.3,4.7-24.6,3.3-27C458.9,374.3,455.1,372.9,449.4,370z"/>
</svg>
